{
    "object": {
        "name": "Cube",
        "material": "Test",
        "components": [
            {
                "type": "Model",
                "name": "Model.0",
                "mesh_type": "static",
                "custom_material": "Test",
                "file": "assets/models/data/cube.glb"
            },
            {
                "type": "RigidBody",
                "name": "Physics.1",
                "mass": 0.0,
                "collider": {
                    "box": [2, 2, 2]
                }
            }
        ],
        "transform": {
            "position": [0.0, 0.0, 0.0],
            "rotation": [0.0, 0.0, 0.0],
            "scale": [1.0, 1.0, 1.0]
        }
    }
}
